{
  "project_info": {
    "project_number": "1033087523892",
    "firebase_url": "https://afk-arena-guide-no-ads.firebaseio.com",
    "project_id": "afk-arena-guide-no-ads",
    "storage_bucket": "afk-arena-guide-no-ads.appspot.com"
  },
  "client": [
    {
      "client_info": {
        "mobilesdk_app_id": "1:1033087523892:android:ca4a1062ef4f0f12",
        "android_client_info": {
          "package_name": "com.mxlappsnoads.app.afk_arenaguide"
        }
      },
      "oauth_client": [
        {
          "client_id": "1033087523892-f17bl12mpmvcu1onc3q97tdulk0pndt4.apps.googleusercontent.com",
          "client_type": 1,
          "android_info": {
            "package_name": "com.mxlappsnoads.app.afk_arenaguide",
            "certificate_hash": "1918a29f03d61f46f4fc2c0fa66e38434492e0ca"
          }
        },
        {
          "client_id": "1033087523892-3h86bqtk1dbj4o37lgnb64qsqkc8j09e.apps.googleusercontent.com",
          "client_type": 3
        }
      ],
      "api_key": [
        {
          "current_key": "AIzaSyAEPsbtxfcVtOjwTpvgIE_-gc4LfB9Skn8"
        }
      ],
      "services": {
        "appinvite_service": {
          "other_platform_oauth_client": [
            {
              "client_id": "1033087523892-3h86bqtk1dbj4o37lgnb64qsqkc8j09e.apps.googleusercontent.com",
              "client_type": 3
            }
          ]
        }
      }
    }
  ],
  "configuration_version": "1"
}